<?xml version="1.0" encoding="UTF-8" standalone="no"?>
<svg xmlns="http://www.w3.org/2000/svg" viewBox="0 0 32 32" height="32" width="32">
  <g>
    <path
       d="m 29.024819,9.7814712 h -6.214406 c -1.255599,0 -2.266423,-1.0193 -2.266423,-2.2853 v -6.3424 m 0,0 H 5.2273634 c -1.2555997,0 -2.2664246,1.0192 -2.2664246,2.2851 V 28.575371 c 0,1.2659 1.0108249,2.2851 2.2664246,2.2851 H 26.758393 c 1.255601,0 2.266426,-1.0192 2.266426,-2.2851 V 9.7814712 m 0,0 -8.48083,-8.6277"
       style="fill:none;stroke:#9ba7ab;stroke-width:2;stroke-linecap:round;stroke-linejoin:round;" />
  </g>
</svg>
