<?xml version="1.0" encoding="UTF-8" standalone="no"?>
<svg
   xmlns:dc="http://purl.org/dc/elements/1.1/"
   xmlns:cc="http://creativecommons.org/ns#"
   xmlns:rdf="http://www.w3.org/1999/02/22-rdf-syntax-ns#"
   xmlns:svg="http://www.w3.org/2000/svg"
   xmlns="http://www.w3.org/2000/svg"
   xmlns:xlink="http://www.w3.org/1999/xlink"
   width="32"
   height="32"
   viewBox="0 0 8.4666665 8.466667"
   version="1.1"
   id="svg8">
  <defs
     id="defs2">
    <linearGradient
       id="linearGradient4797">
      <stop
         style="stop-color:#3f8df9;stop-opacity:1"
         offset="0"
         id="stop4793" />
      <stop
         style="stop-color:#66bada;stop-opacity:0.85882354"
         offset="1"
         id="stop4795" />
    </linearGradient>
    <linearGradient
       xlink:href="#linearGradient4797"
       id="linearGradient4799-8-9"
       x1="4.3417869"
       y1="296.74231"
       x2="4.3417869"
       y2="288.70752"
       gradientUnits="userSpaceOnUse" />
    <linearGradient
       xlink:href="#linearGradient4797"
       id="linearGradient4799-8-8"
       x1="4.3417869"
       y1="296.74231"
       x2="4.3417869"
       y2="288.70752"
       gradientUnits="userSpaceOnUse" />
    <linearGradient
       xlink:href="#linearGradient4797"
       id="linearGradient845"
       gradientUnits="userSpaceOnUse"
       x1="28.266586"
       y1="298.26868"
       x2="28.266586"
       y2="289.84341" />
    <linearGradient
       gradientUnits="userSpaceOnUse"
       y2="1.1891789"
       x2="2.2338405"
       y1="7.3155403"
       x1="2.2338405"
       id="linearGradient921"
       xlink:href="#linearGradient4797" />
    <linearGradient
       xlink:href="#linearGradient4797"
       id="linearGradient845-0"
       gradientUnits="userSpaceOnUse"
       x1="28.266586"
       y1="298.26868"
       x2="28.266586"
       y2="289.84341" />
    <linearGradient
       gradientUnits="userSpaceOnUse"
       y2="288.70752"
       x2="4.3417869"
       y1="296.74231"
       x1="4.3417869"
       id="linearGradient4799-8-2"
       xlink:href="#linearGradient4797"
       gradientTransform="matrix(3.7795275,0,0,3.7795275,-18.682339,-1093.9854)" />
  </defs>
  <metadata
     id="metadata5">
    <rdf:RDF>
      <cc:Work
         rdf:about="">
        <dc:format>image/svg+xml</dc:format>
        <dc:type
           rdf:resource="http://purl.org/dc/dcmitype/StillImage" />
        <dc:title></dc:title>
      </cc:Work>
    </rdf:RDF>
  </metadata>
  <path
     id="ellipse837"
     d="m 1.7924625,1.1456244 a 1.5576454,1.2845873 30 0 0 -1.16033402,0.5778665 1.5576454,1.2845873 30 0 0 0.70669002,1.8914086 1.5576454,1.2845873 30 0 0 0.184954,0.092017 l 0.834134,0.4748075 c 0,0 0.08309,0.049477 0.0865,0.05153 -0.0034,0.00205 -0.0865,0.05153 -0.0865,0.05153 l -0.834134,0.4748065 a 1.2845873,1.5576454 60 0 0 -0.184954,0.092017 1.2845873,1.5576454 60 0 0 -0.70669002,1.8914087 1.2845873,1.5576454 60 0 0 1.99124692,0.3335613 1.2845873,1.5576454 60 0 0 0.70669,-1.8914084 1.2845873,1.5576454 60 0 0 -0.21624,-0.2645488 l 0.234184,-0.1495277 c 1.149439,0.687437 3.217899,1.918107 3.489743,1.9944677 0.184158,0.059889 0.298672,0.085756 0.404414,0.085576 0.176237,-2.999e-4 0.328153,-0.072643 0.737516,-0.1785128 L 7.2453874,6.1803323 4.1918044,4.2332534 7.2453874,2.2861746 7.9796824,1.7938839 C 7.5703194,1.688014 7.4184034,1.6156707 7.2421664,1.6153709 c -0.105742,-1.8e-4 -0.220256,0.025687 -0.404414,0.085576 -0.271844,0.076361 -2.340304,1.3070307 -3.489743,1.9944677 L 3.1138254,3.5458871 A 1.5576454,1.2845873 30 0 0 3.3300654,3.2813383 1.5576454,1.2845873 30 0 0 2.6233754,1.3899296 1.5576454,1.2845873 30 0 0 1.7924625,1.1456244 Z m -0.0014,0.4393809 a 0.9682887,0.79854596 30 0 1 0.54336,0.1527482 0.9682887,0.79854596 30 0 1 0.4393809,1.1755166 0.9682887,0.79854596 30 0 1 -0.6947279,0.3597864 0.9682887,0.79854596 30 0 1 -0.542901,-0.152288 0.9682887,0.79854596 30 0 1 -0.43938,-1.1759768 0.9682887,0.79854596 30 0 1 0.694268,-0.3597864 z m 1.5638279,2.408544 A 0.23955603,0.23955603 0 0 1 3.5945944,4.2332534 0.23955603,0.23955603 0 0 1 3.3548904,4.4729576 0.23955603,0.23955603 0 0 1 3.1156464,4.2332534 0.23955603,0.23955603 0 0 1 3.3548904,3.9935493 Z M 2.0790755,5.1934504 a 0.79854596,0.9682887 60 0 1 0.6947279,0.3597864 0.79854596,0.9682887 60 0 1 -0.4393809,1.1755166 0.79854596,0.9682887 60 0 1 -1.237628,-0.2070381 0.79854596,0.9682887 60 0 1 0.43938,-1.1759769 0.79854596,0.9682887 60 0 1 0.542901,-0.152288 z"
     style="opacity:1;vector-effect:none;fill:url(#linearGradient921);fill-opacity:1;stroke:none;stroke-width:0.61265641;stroke-linecap:butt;stroke-linejoin:miter;stroke-miterlimit:4;stroke-dasharray:none;stroke-dashoffset:0;stroke-opacity:1" />
</svg>
